lab1/wave_debug/wave.vcd
$date
     Sep 26, 2015       18:08:22
$end

$version
              SystemC 2.3.0_pub_rev_20111121-OSCI --- Sep  3 2015 23:46:02
$end

$timescale
     1 ps
$end

$scope module SystemC $end
$var wire    1  aaa  osc       $end
$var real    1  aab  pressure       $end
$var real    1  aac  temperature       $end
$var wire   32  aad  cylinder [31:0]  $end
$upscope $end
$enddefinitions  $end

$comment
All initial values are dumped below at time 0 sec = 0 timescale units.
$end

$dumpvars
0aaa
r0 aab
r0.4 aac
b1 aad
$end

#1000
1aaa
r1 aab
r0.39 aac
b10 aad

#2000
r2 aab
r0.38 aac
b11 aad

#3000
r3 aab
r0.37 aac
b100 aad

#4000
r4 aab
r0.36 aac
b101 aad

#5000
r5 aab
r0.35 aac
b110 aad

#6000
r6 aab
r0.34 aac
b111 aad

#7000
r7 aab
r0.33 aac
b1000 aad

#8000
r8 aab
r0.32 aac
b1 aad

#9000
r9 aab
r0.3099999999999999 aac
b10 aad

#10000
r10 aab
r0.2999999999999999 aac
b11 aad

#11000
r11 aab
r0.2899999999999999 aac
b100 aad

#12000
r12 aab
r0.2799999999999999 aac
b101 aad

#13000
r13 aab
r0.2699999999999999 aac
b110 aad

#14000
r14 aab
r0.2599999999999999 aac
b111 aad

#15000
r15 aab
r0.2499999999999999 aac
b1000 aad

#16000
r16 aab
r0.2399999999999999 aac
b1 aad

#17000
r17 aab
r0.2299999999999999 aac
b10 aad

#18000
r18 aab
r0.2199999999999999 aac
b11 aad

#19000
r19 aab
r0.2099999999999999 aac
b100 aad

#20000
r20 aab
r0.1999999999999998 aac
b101 aad

#21000
r21 aab
r0.1899999999999998 aac
b110 aad

#22000
r22 aab
r0.1799999999999998 aac
b111 aad

#23000
r23 aab
r0.1699999999999998 aac
b1000 aad

#24000
r24 aab
r0.1599999999999998 aac
b1 aad

#25000
r25 aab
r0.1499999999999998 aac
b10 aad

#26000
r26 aab
r0.1399999999999998 aac
b11 aad

#27000
r27 aab
r0.1299999999999998 aac
b100 aad

#28000
r28 aab
r0.1199999999999998 aac
b101 aad

#29000
r29 aab
r0.1099999999999998 aac
b110 aad

#30000
r30 aab
r0.0999999999999998 aac
b111 aad

#31000
r31 aab
r0.0899999999999998 aac
b1000 aad

#32000
r32 aab
r0.07999999999999981 aac
b1 aad

#33000
r33 aab
r0.06999999999999981 aac
b10 aad

#34000
r34 aab
r0.05999999999999981 aac
b11 aad

#35000
r35 aab
r0.04999999999999981 aac
b100 aad

#36000
r36 aab
r0.03999999999999981 aac
b101 aad

#37000
r37 aab
r0.0299999999999998 aac
b110 aad

#38000
r38 aab
r0.0199999999999998 aac
b111 aad

#39000
r39 aab
r0.009999999999999802 aac
b1000 aad

#40000
r40 aab
r-1.97758476261356e-16 aac
b1 aad

#41000
r41 aab
r-0.0100000000000002 aac
b10 aad

#42000
r42 aab
r-0.0200000000000002 aac
b11 aad

#43000
r43 aab
r-0.0300000000000002 aac
b100 aad

#44000
r44 aab
r-0.0400000000000002 aac
b101 aad

#45000
r45 aab
r-0.0500000000000002 aac
b110 aad

#46000
r46 aab
r-0.06000000000000021 aac
b111 aad

#47000
r47 aab
r-0.0700000000000002 aac
b1000 aad

#48000
r48 aab
r-0.0800000000000002 aac
b1 aad

#49000
r49 aab
r-0.09000000000000019 aac
b10 aad

#50000
r50 aab
r-0.1000000000000002 aac
b11 aad

#51000
r49 aab
r0 aac
b100 aad

#52000
r48 aab
r0.09983341664682815 aac
b101 aad

#53000
r47 aab
r0.1986693307950612 aac
b110 aad

#54000
r46 aab
r0.2955202066613396 aac
b111 aad

#55000
r45 aab
r0.3894183423086505 aac
b1000 aad

#56000
r44 aab
r0.479425538604203 aac
b1 aad

#57000
r43 aab
r0.5646424733950354 aac
b10 aad

#58000
r42 aab
r0.644217687237691 aac
b11 aad

#59000
r41 aab
r0.7173560908995227 aac
b100 aad

#60000
r40 aab
r0.7833269096274833 aac
b101 aad

#61000
r39 aab
r0.8414709848078964 aac
b110 aad

#62000
r38 aab
r0.8912073600614353 aac
b111 aad

#63000
r37 aab
r0.9320390859672263 aac
b1000 aad

#64000
r36 aab
r0.963558185417193 aac
b1 aad

#65000
r35 aab
r0.9854497299884603 aac
b10 aad

#66000
r34 aab
r0.9974949866040544 aac
b11 aad

#67000
r33 aab
r0.9995736030415051 aac
b100 aad

#68000
r32 aab
r0.9916648104524686 aac
b101 aad

#69000
r31 aab
r0.973847630878195 aac
b110 aad

#70000
r30 aab
r0.9463000876874142 aac
b111 aad

#71000
r29 aab
r0.9092974268256815 aac
b1000 aad

#72000
r28 aab
r0.8632093666488735 aac
b1 aad

#73000
r27 aab
r0.8084964038195899 aac
b10 aad

#74000
r26 aab
r0.7457052121767197 aac
b11 aad

#75000
r25 aab
r0.6754631805511503 aac
b100 aad

#76000
r24 aab
r0.5984721441039558 aac
b101 aad

#77000
r23 aab
r0.5155013718214634 aac
b110 aad

#78000
r22 aab
r0.4273798802338289 aac
b111 aad

#79000
r21 aab
r0.3349881501559038 aac
b1000 aad

#80000
r20 aab
r0.2392493292139811 aac
b1 aad

#81000
r19 aab
r0.1411200080598659 aac
b10 aad

#82000
r18 aab
r0.04158066243328916 aac
b11 aad

#83000
r17 aab
r-0.05837414342758142 aac
b100 aad

#84000
r16 aab
r-0.15774569414325 aac
b101 aad

#85000
r15 aab
r-0.2555411020268329 aac
b110 aad

#86000
r14 aab
r-0.3507832276896215 aac
b111 aad

#87000
r13 aab
r-0.4425204432948541 aac
b1000 aad

#88000
r12 aab
r-0.5298361409084948 aac
b1 aad

#89000
r11 aab
r-0.6118578909427207 aac
b10 aad

#90000
r10 aab
r-0.6877661591839753 aac
b11 aad

#91000
r9 aab
r-0.7568024953079294 aac
b100 aad

#92000
r8 aab
r-0.8182771110644114 aac
b101 aad

#93000
r7 aab
r-0.8715757724135886 aac
b110 aad

#94000
r6 aab
r-0.9161659367494552 aac
b111 aad

#95000
r5 aab
r-0.951602073889516 aac
b1000 aad

#96000
r4 aab
r-0.977530117665097 aac
b1 aad

#97000
r3 aab
r-0.9936910036334644 aac
b10 aad

#98000
r2 aab
r-0.9999232575641008 aac
b11 aad

#99000
r1 aab
r-0.9961646088358408 aac
b100 aad

#100000
r0 aab
r-0.9824526126243328 aac
b101 aad

#101000
r-1 aab
r-0.958924274663139 aac
b110 aad

#102000
r-2 aab
r-0.9258146823277331 aac
b111 aad

#103000
r-3 aab
r-0.8834546557201545 aac
b1000 aad

#104000
r-4 aab
r-0.8322674422239027 aac
b1 aad

#105000
r-5 aab
r-0.7727644875559894 aac
b10 aad

#106000
r-6 aab
r-0.7055403255703945 aac
b11 aad

#107000
r-7 aab
r-0.6312666378723243 aac
b100 aad

#108000
r-8 aab
r-0.5506855425976414 aac
b101 aad

#109000
r-9 aab
r-0.4646021794137613 aac
b110 aad

#110000
r-10 aab
r-0.373876664830241 aac
b111 aad

#111000
r-11 aab
r-0.279415498198931 aac
b1000 aad

#112000
r-12 aab
r-0.1821625042721011 aac
b1 aad

#113000
r-13 aab
r-0.0830894028175026 aac
b10 aad

#114000
r-14 aab
r0.0168139004843435 aac
b11 aad

#115000
r-15 aab
r0.1165492048504866 aac
b100 aad

#116000
r-16 aab
r0.2151199880878086 aac
b101 aad

#117000
r-17 aab
r0.3115413635133711 aac
b110 aad

#118000
r-18 aab
r0.404849920616591 aac
b111 aad

#119000
r-19 aab
r0.4941133511386012 aac
b1000 aad

#120000
r-20 aab
r0.5784397643881929 aac
b1 aad

#121000
r-21 aab
r0.6569865987187824 aac
b10 aad

#122000
r-22 aab
r0.7289690401258698 aac
b11 aad

#123000
r-23 aab
r0.7936678638491472 aac
b100 aad

#124000
r-24 aab
r0.8504366206285593 aac
b101 aad

#125000
r-25 aab
r0.8987080958116223 aac
b110 aad

#126000
r-26 aab
r0.9379999767747351 aac
b111 aad

#127000
r-27 aab
r0.9679196720314837 aac
b1000 aad

#128000
r-28 aab
r0.9881682338769986 aac
b1 aad

#129000
r-29 aab
r0.9985433453746043 aac
b10 aad

#130000
r-30 aab
r0.9989413418397726 aac
b11 aad

#131000
r-31 aab
r0.9893582466233836 aac
b100 aad

#132000
r-32 aab
r0.9698898108450894 aac
b101 aad

#133000
r-33 aab
r0.9407305566797773 aac
b110 aad

#134000
r-34 aab
r0.9021718337562995 aac
b111 aad

#135000
r-35 aab
r0.8545989080882879 aac
b1000 aad

#136000
r-36 aab
r0.7984871126234988 aac
b1 aad

#137000
r-37 aab
r0.734397097874123 aac
b10 aad

#138000
r-38 aab
r0.662969230082194 aac
b11 aad

#139000
r-39 aab
r0.5849171928917747 aac
b100 aad

#140000
r-40 aab
r0.5010208564578985 aac
b101 aad

#141000
r-41 aab
r0.4121184852417711 aac
b110 aad

#142000
r-42 aab
r0.3190983623493673 aac
b111 aad

#143000
r-43 aab
r0.2228899141002632 aac
b1000 aad

#144000
r-44 aab
r0.1244544235070793 aac
b1 aad

#145000
r-45 aab
r0.02477542545337552 aac
b10 aad

#146000
r-46 aab
r-0.07515112046179159 aac
b11 aad

#147000
r-47 aab
r-0.1743267812229621 aac
b100 aad

#148000
r-48 aab
r-0.2717606264109254 aac
b101 aad

#149000
r-49 aab
r-0.3664791292519102 aac
b110 aad

#150000
r-50 aab
r-0.457535893775304 aac
b111 aad

#151000
r-51 aab
r-0.5440211108893535 aac
b1000 aad

